module golang-todo

go 1.18

require (
	github.com/go-playground/validator/v10 v10.12.0
	github.com/gofiber/fiber/v2 v2.44.0
	github.com/gofiber/jwt/v3 v3.3.9
	github.com/golang-jwt/jwt/v4 v4.5.0
	github.com/jinzhu/gorm v1.9.16
	github.com/joho/godotenv v1.4.0
	github.com/lib/pq v1.10.6
	golang.org/x/crypto v0.7.0
)

require (
	github.com/andybalholm/brotli v1.0.5 // indirect
	github.com/go-playground/locales v0.14.1 // indirect
	github.com/go-playground/universal-translator v0.18.1 // indirect
	github.com/google/uuid v1.3.0 // indirect
	github.com/jinzhu/inflection v1.0.0 // indirect
	github.com/k3a/html2text v1.2.1 // indirect
	github.com/klauspost/compress v1.16.3 // indirect
	github.com/leodido/go-urn v1.2.2 // indirect
	github.com/mattn/go-colorable v0.1.13 // indirect
	github.com/mattn/go-isatty v0.0.18 // indirect
	github.com/mattn/go-runewidth v0.0.14 // indirect
	github.com/philhofer/fwd v1.1.2 // indirect
	github.com/rivo/uniseg v0.2.0 // indirect
	github.com/savsgio/dictpool v0.0.0-20221023140959-7bf2e61cea94 // indirect
	github.com/savsgio/gotils v0.0.0-20230208104028-c358bd845dee // indirect
	github.com/thanhpk/randstr v1.0.5 // indirect
	github.com/tinylib/msgp v1.1.8 // indirect
	github.com/valyala/bytebufferpool v1.0.0 // indirect
	github.com/valyala/fasthttp v1.45.0 // indirect
	github.com/valyala/tcplisten v1.0.0 // indirect
	golang.org/x/sys v0.7.0 // indirect
	golang.org/x/text v0.8.0 // indirect
	gopkg.in/alexcesaro/quotedprintable.v3 v3.0.0-20150716171945-2caba252f4dc // indirect
	gopkg.in/gomail.v2 v2.0.0-20160411212932-81ebce5c23df // indirect
)
